\relax 
\providecommand\hyper@newdestlabel[2]{}
\providecommand\HyperFirstAtBeginDocument{\AtBeginDocument}
\HyperFirstAtBeginDocument{\ifx\hyper@anchor\@undefined
\global\let\oldcontentsline\contentsline
\gdef\contentsline#1#2#3#4{\oldcontentsline{#1}{#2}{#3}}
\global\let\oldnewlabel\newlabel
\gdef\newlabel#1#2{\newlabelxx{#1}#2}
\gdef\newlabelxx#1#2#3#4#5#6{\oldnewlabel{#1}{{#2}{#3}}}
\AtEndDocument{\ifx\hyper@anchor\@undefined
\let\contentsline\oldcontentsline
\let\newlabel\oldnewlabel
\fi}
\fi}
\global\let\hyper@last\relax 
\gdef\HyperFirstAtBeginDocument#1{#1}
\providecommand\HyField@AuxAddToFields[1]{}
\providecommand\HyField@AuxAddToCoFields[2]{}
\citation{NCI2:2015}
\citation{NCI2:2015}
\citation{NCI:2015}
\citation{NCI2:2015}
\citation{AIRC:2015}
\citation{ACS:2015}
\citation{Mammografia:2015}
\citation{Biopsia:1998}
\citation{Biopsia:1998}
\citation{Biopsia:2012}
\citation{Mammografia:2015}
\@writefile{toc}{\contentsline {section}{\numberline {I}Introduzione}{1}{section.1}}
\citation{WDBC:1995}
\citation{WDBC:1995}
\@writefile{toc}{\contentsline {subsection}{\numberline {I}Obiettivi}{2}{subsection.1.1}}
\@writefile{lof}{\contentsline {figure}{\numberline {1}{\ignorespaces A sinistra cellule tumorali, a destra cellule sane\relax }}{2}{figure.1}}
\newlabel{fig:cellula}{{1}{2}{A sinistra cellule tumorali, a destra cellule sane\relax }{figure.1}{}}
\newlabel{tab:tab1}{{I}{2}{Obiettivi}{figure.1}{}}
\@writefile{toc}{\contentsline {section}{\numberline {II}Descrizione del dataset}{2}{section.2}}
\newlabel{sec:s2}{{II}{2}{Descrizione del dataset}{section.2}{}}
\newlabel{tab:t1}{{II}{2}{Descrizione del dataset}{section.2}{}}
\citation{SKL:Site}
\@writefile{lof}{\contentsline {figure}{\numberline {2}{\ignorespaces Frequenza delle classi\relax }}{3}{figure.2}}
\newlabel{fig:tf}{{2}{3}{Frequenza delle classi\relax }{figure.2}{}}
\@writefile{toc}{\contentsline {section}{\numberline {III}Classificatori}{3}{section.3}}
\newlabel{sec:classificatori}{{III}{3}{Classificatori}{section.3}{}}
\@writefile{toc}{\contentsline {subsection}{\numberline {I}Logistic Regression}{3}{subsection.3.1}}
\@writefile{toc}{\contentsline {subsection}{\numberline {II}Linear Discriminant Analysis, Quadratic Discriminant Analysis}{3}{subsection.3.2}}
\newlabel{eq:discriminant}{{1}{3}{Linear Discriminant Analysis, Quadratic Discriminant Analysis}{equation.3.1}{}}
\@writefile{toc}{\contentsline {subsection}{\numberline {III}Naive Bayes}{3}{subsection.3.3}}
\citation{PML:2015}
\@writefile{toc}{\contentsline {subsection}{\numberline {IV}Percettrone}{4}{subsection.3.4}}
\@writefile{toc}{\contentsline {subsection}{\numberline {V}k-Nearest Neighbors}{4}{subsection.3.5}}
\@writefile{toc}{\contentsline {subsection}{\numberline {VI}Support Vector Machine}{4}{subsection.3.6}}
\@writefile{toc}{\contentsline {subsection}{\numberline {VII}Clustering con k-Means}{4}{subsection.3.7}}
\newlabel{eq:min_kmeans}{{2}{4}{Clustering con k-Means}{equation.3.2}{}}
\@writefile{toc}{\contentsline {subsection}{\numberline {VIII}Riduzione della dimensionalit\IeC {\`a}: Principal Component Analysis}{4}{subsection.3.8}}
\citation{PML:2015}
\citation{PML:2015}
\@writefile{toc}{\contentsline {section}{\numberline {IV}Metriche}{5}{section.4}}
\newlabel{sec:s3}{{IV}{5}{Metriche}{section.4}{}}
\@writefile{lof}{\contentsline {figure}{\numberline {3}{\ignorespaces Matrice di confusione\relax }}{5}{figure.3}}
\newlabel{fig:cm}{{3}{5}{Matrice di confusione\relax }{figure.3}{}}
\newlabel{eq:accuracy}{{3}{5}{Metriche}{equation.4.3}{}}
\newlabel{eq:recall}{{4}{5}{Metriche}{equation.4.4}{}}
\newlabel{eq:precision}{{5}{5}{Metriche}{equation.4.5}{}}
\newlabel{eq:f1score}{{6}{5}{Metriche}{equation.4.6}{}}
\newlabel{eq:f2score}{{7}{5}{Metriche}{equation.4.7}{}}
\@writefile{toc}{\contentsline {section}{\numberline {V}Feature scaling}{5}{section.5}}
\newlabel{sec:fs}{{V}{5}{Feature scaling}{section.5}{}}
\newlabel{eq:minmax}{{8}{5}{Feature scaling}{equation.5.8}{}}
\citation{SKL:2015}
\citation{BSH:2006}
\citation{KOH:1995}
\newlabel{eq:standardization}{{9}{6}{Feature scaling}{equation.5.9}{}}
\@writefile{toc}{\contentsline {section}{\numberline {VI}Cross Validation}{6}{section.6}}
\newlabel{sec:cv}{{VI}{6}{Cross Validation}{section.6}{}}
\@writefile{lof}{\contentsline {figure}{\numberline {4}{\ignorespaces Accuracy vs Folds\relax }}{6}{figure.4}}
\newlabel{fig:acc_vs_folds}{{4}{6}{Accuracy vs Folds\relax }{figure.4}{}}
\@writefile{lof}{\contentsline {figure}{\numberline {5}{\ignorespaces F2 vs Folds\relax }}{6}{figure.5}}
\newlabel{fig:f2_vs_folds}{{5}{6}{F2 vs Folds\relax }{figure.5}{}}
\@writefile{toc}{\contentsline {section}{\numberline {VII}Risultati sperimentali}{7}{section.7}}
\newlabel{sec:rs}{{VII}{7}{Risultati sperimentali}{section.7}{}}
\@writefile{toc}{\contentsline {paragraph}{Clustering}{7}{section.7}}
\@writefile{lof}{\contentsline {figure}{\numberline {6}{\ignorespaces Confusion Matrix\relax }}{7}{figure.6}}
\newlabel{fig:kmeans_conf_mat}{{6}{7}{Confusion Matrix\relax }{figure.6}{}}
\@writefile{toc}{\contentsline {paragraph}{Percettrone}{7}{figure.6}}
\@writefile{lof}{\contentsline {figure}{\numberline {7}{\ignorespaces Accuracy vs Iterazioni\relax }}{7}{figure.7}}
\newlabel{fig:perceptron_vs_epochs}{{7}{7}{Accuracy vs Iterazioni\relax }{figure.7}{}}
\@writefile{toc}{\contentsline {paragraph}{k-Nearest Neighbors}{8}{figure.7}}
\@writefile{lof}{\contentsline {figure}{\numberline {8}{\ignorespaces F2-Score k-NN\relax }}{8}{figure.8}}
\newlabel{fig:kNN_scelta_parametri_f2score}{{8}{8}{F2-Score k-NN\relax }{figure.8}{}}
\@writefile{lof}{\contentsline {figure}{\numberline {9}{\ignorespaces Accuracy k-NN\relax }}{8}{figure.9}}
\newlabel{fig:kNN_scelta_parametri_accuracy}{{9}{8}{Accuracy k-NN\relax }{figure.9}{}}
\@writefile{toc}{\contentsline {paragraph}{Confronto tra classificatori}{8}{figure.9}}
\newlabel{par:confronto}{{VII}{8}{Confronto tra classificatori}{figure.9}{}}
\@writefile{lot}{\contentsline {table}{\numberline {1}{\ignorespaces Accuracy e F2-Score classificatori\relax }}{8}{table.caption.1}}
\providecommand*\caption@xref[2]{\@setref\relax\@undefined{#1}}
\newlabel{table:t2}{{1}{8}{Accuracy e F2-Score classificatori\relax }{table.caption.1}{}}
\@writefile{lof}{\contentsline {figure}{\numberline {10}{\ignorespaces Accuracy classificatori\relax }}{9}{figure.10}}
\newlabel{fig:modelli_semplici_score_accuracy}{{10}{9}{Accuracy classificatori\relax }{figure.10}{}}
\@writefile{lof}{\contentsline {figure}{\numberline {11}{\ignorespaces F2-Score classificatori\relax }}{9}{figure.11}}
\newlabel{fig:modelli_semplici_f2scorey}{{11}{9}{F2-Score classificatori\relax }{figure.11}{}}
\@writefile{toc}{\contentsline {subsection}{\numberline {I}PCA e principal component}{9}{subsection.7.1}}
\newlabel{eq:evr}{{10}{9}{PCA e principal component}{equation.7.10}{}}
\@writefile{lof}{\contentsline {figure}{\numberline {12}{\ignorespaces Explained variance vs Principal component\relax }}{10}{figure.12}}
\newlabel{fig:exp_variance_ratio}{{12}{10}{Explained variance vs Principal component\relax }{figure.12}{}}
\@writefile{lof}{\contentsline {figure}{\numberline {13}{\ignorespaces Accuracy vs Principal Component\relax }}{10}{figure.13}}
\newlabel{fig:acc_vs_components}{{13}{10}{Accuracy vs Principal Component\relax }{figure.13}{}}
\@writefile{lof}{\contentsline {figure}{\numberline {14}{\ignorespaces F2 vs Principal Component\relax }}{10}{figure.14}}
\newlabel{fig:f2_vs_components}{{14}{10}{F2 vs Principal Component\relax }{figure.14}{}}
\citation{UCIBCW:1992}
\@writefile{lot}{\contentsline {table}{\numberline {2}{\ignorespaces Accuracy e F2-Score classificatori con 10 PC\relax }}{11}{table.caption.2}}
\newlabel{table:t2pca}{{2}{11}{Accuracy e F2-Score classificatori con 10 PC\relax }{table.caption.2}{}}
\@writefile{lof}{\contentsline {figure}{\numberline {15}{\ignorespaces Performance classificatori con 10 PC\relax }}{11}{figure.15}}
\newlabel{fig:acc_f2_pca}{{15}{11}{Performance classificatori con 10 PC\relax }{figure.15}{}}
\@writefile{toc}{\contentsline {section}{\numberline {VIII}Conclusioni e sviluppi futuri}{11}{section.8}}
\newlabel{sec:sf}{{VIII}{11}{Conclusioni e sviluppi futuri}{section.8}{}}
\@writefile{toc}{\contentsline {paragraph}{Feature Selection}{11}{section.8}}
\bibcite{NCI2:2015}{1}
\bibcite{NCI:2015}{2}
\bibcite{AIRC:2015}{3}
\@writefile{lof}{\contentsline {figure}{\numberline {16}{\ignorespaces Distribuzione del campione sulle due classi\relax }}{12}{figure.16}}
\newlabel{fig:class_distribution}{{16}{12}{Distribuzione del campione sulle due classi\relax }{figure.16}{}}
\@writefile{toc}{\contentsline {paragraph}{Funzione di rischio}{12}{figure.16}}
\newlabel{table:t3}{{\caption@xref {table:t3}{ on input line 667}}{12}{Funzione di rischio}{table.caption.3}{}}
\newlabel{eq:emc}{{11}{12}{Funzione di rischio}{equation.8.11}{}}
\bibcite{ACS:2015}{4}
\bibcite{Mammografia:2015}{5}
\bibcite{Biopsia:1998}{6}
\bibcite{Biopsia:2012}{7}
\bibcite{WDBC:1995}{8}
\bibcite{WDBC:Image}{9}
\bibcite{PML:2015}{10}
\bibcite{SKL:Site}{11}
\bibcite{SKL:2015}{12}
\bibcite{BSH:2006}{13}
\bibcite{KOH:1995}{14}
\bibcite{BSH2:2006}{15}
\bibcite{UCIBCW:1992}{16}
